file name,C:\Program Files (x86)\PNE CTS\Data\00_     1     2_190507154101.fmt
type no,(null)
process no,4
batch no,12
tray no,     1     2
Stage no,110
시작시간,2019-05-07 오후 3:41:01\noperator,Unuse
,step no,1,,,,2,,,,
,condition,CHG,,,,,완료,,,,
ch,cell no, time_sec, capacity_mAh, voltage_V, current_mA, cc_time_sec,time_sec, capacity_mAh, voltage_V, current_mA,
0,,0.0,0.0,3.1236,0.0,0.0,0.0,0.0,3.1237,0.0,
1,,60.0,165.3,3.2927,10001.1,60.0,0.5,0.0,3.2732,0.0,
2,,60.0,165.3,3.2280,10000.0,60.0,0.5,0.0,3.2084,0.0,
3,,60.0,165.3,3.3045,9999.4,60.0,0.5,0.0,3.2844,0.0,
4,,60.0,165.3,3.3231,9999.5,60.0,0.5,0.0,3.3039,0.0,
5,,60.0,165.3,3.2814,10000.5,60.0,0.5,0.0,3.2618,0.0,
6,,60.0,165.3,3.3225,10000.9,60.0,0.5,0.0,3.3034,0.0,
7,,60.0,165.3,3.3039,9999.5,60.0,0.5,0.0,3.2846,0.0,
8,,60.0,165.3,3.3001,10000.8,60.0,0.5,0.0,3.2808,0.0,
9,,60.0,165.3,3.3055,10001.7,60.0,0.5,0.0,3.2862,0.0,
10,,60.0,165.3,3.3058,10001.2,60.0,0.5,0.0,3.2866,0.0,
11,,60.0,165.3,3.3032,10000.7,60.0,0.5,0.0,3.2843,0.0,
12,,60.0,165.3,3.2987,10000.4,60.0,0.5,0.0,3.2793,0.0,
13,,60.0,165.3,3.3002,9999.9,60.0,0.5,0.0,3.2806,0.0,
14,,60.0,165.3,3.2988,9999.5,60.0,0.5,0.0,3.2791,0.0,
15,,60.0,165.3,3.3028,9999.4,60.0,0.5,0.0,3.2839,0.0,
16,,60.0,165.3,3.2945,10001.5,60.0,0.5,0.0,3.2755,0.0,
17,,60.0,165.3,3.2809,10001.1,60.0,0.5,0.0,3.2626,0.0,
18,,60.0,165.3,3.3069,9999.4,60.0,0.5,0.0,3.2873,0.0,
19,,60.0,165.3,3.2979,10000.6,60.0,0.5,0.0,3.2785,0.0,
20,,60.0,165.3,3.3042,10000.3,60.0,0.5,0.0,3.2850,0.0,
21,,60.0,165.3,3.3048,9999.6,60.0,0.5,0.0,3.2855,0.0,
22,,60.0,165.3,3.3091,9999.5,60.0,0.5,0.0,3.2893,0.0,
23,,60.0,165.3,3.3061,9999.9,60.0,0.5,0.0,3.2863,0.0,
24,,60.0,165.3,3.3071,9999.5,60.0,0.5,0.0,3.2874,0.0,
25,,60.0,165.3,3.2972,9999.2,60.0,0.5,0.0,3.2777,0.0,
26,,60.0,165.3,3.2967,9999.4,60.0,0.5,0.0,3.2771,0.0,
27,,60.0,165.3,3.2983,9999.5,60.0,0.5,0.0,3.2789,0.0,
28,,60.0,165.3,3.3007,10001.2,60.0,0.5,0.0,3.2816,0.0,
29,,60.0,165.3,3.2805,10001.0,60.0,0.5,0.0,3.2621,0.0,
30,,60.0,165.3,3.3042,10001.5,60.0,0.5,0.0,3.2843,0.0,
31,,60.0,165.3,3.2832,10000.0,60.0,0.5,0.0,3.2646,0.0,
32,,60.0,165.3,3.2976,9999.0,60.0,0.5,0.0,3.2784,0.0,
33,,60.0,165.3,3.2966,9999.1,60.0,0.5,0.0,3.2776,0.0,
34,,60.0,165.3,3.2942,9999.1,60.0,0.5,0.0,3.2740,0.0,
35,,60.0,165.3,3.3026,9999.2,60.0,0.5,0.0,3.2836,0.0,
36,,60.0,165.3,3.2574,10001.0,60.0,0.0,0.0,3.2403,0.0,
37,,60.0,165.3,3.3038,10001.1,60.0,0.0,0.0,3.2845,0.0,
38,,60.0,165.3,3.2678,10000.8,60.0,0.0,0.0,3.2505,0.0,
39,,60.0,165.3,3.2849,10001.0,60.0,0.0,0.0,3.2670,0.0,
40,,60.0,165.3,3.2656,10000.3,60.0,0.0,0.0,3.2484,0.0,
41,,60.0,165.3,3.3011,10000.8,60.0,0.0,0.0,3.2833,0.0,
42,,60.0,165.3,3.2861,10000.6,60.0,0.0,0.0,3.2676,0.0,
43,,60.0,165.4,3.3076,10000.1,60.0,0.0,0.0,3.2888,0.0,
44,,60.0,165.3,3.2987,10000.5,60.0,0.0,0.0,3.2798,0.0,
45,,60.0,165.3,3.2760,10000.4,60.0,0.0,0.0,3.2584,0.0,
46,,60.0,165.3,3.2981,9999.6,60.0,0.0,0.0,3.2795,0.0,
47,,60.0,165.3,3.3065,10000.0,60.0,0.0,0.0,3.2875,0.0,
48,,60.0,165.3,3.2853,10000.0,60.0,0.0,0.0,3.2667,0.0,
49,,60.0,165.3,3.2981,10000.8,60.0,0.0,0.0,3.2797,0.0,
50,,60.0,165.3,3.2666,10001.2,60.0,0.0,0.0,3.2487,0.0,
51,,60.0,165.3,3.2722,9999.9,60.0,0.0,0.0,3.2548,0.0,
52,,60.0,165.3,3.3033,9999.2,60.0,0.0,0.0,3.2845,0.0,
53,,60.0,165.3,3.2776,9999.7,60.0,0.0,0.0,3.2601,0.0,
54,,60.0,165.3,3.3006,9999.0,60.0,0.0,0.0,3.2822,0.0,
55,,60.0,165.3,3.2827,9999.7,60.0,0.0,0.0,3.2643,0.0,
56,,60.0,165.3,3.2867,10000.0,60.0,0.0,0.0,3.2684,0.0,
57,,60.0,165.3,3.2856,10000.1,60.0,0.0,0.0,3.2676,0.0,
58,,60.0,165.3,3.2943,9999.5,60.0,0.0,0.0,3.2762,0.0,
59,,60.0,165.3,3.2772,9999.9,60.0,0.0,0.0,3.2598,0.0,
60,,60.0,165.3,3.2722,9999.1,60.0,0.0,0.0,3.2536,0.0,
61,,60.0,165.3,3.2753,9999.5,60.0,0.0,0.0,3.2567,0.0,
62,,60.0,165.3,3.2758,9999.5,60.0,0.0,0.0,3.2573,0.0,
63,,60.0,165.3,3.2651,9999.3,60.0,0.0,0.0,3.2463,0.0,
64,,60.0,165.3,3.3047,10000.4,60.0,0.0,0.0,3.2865,0.0,
65,,60.0,165.3,3.2920,10000.5,60.0,0.0,0.0,3.2742,0.0,
66,,60.0,165.3,3.2777,10000.8,60.0,0.0,0.0,3.2606,0.0,
67,,60.0,165.3,3.2904,10000.0,60.0,0.0,0.0,3.2726,0.0,
68,,60.0,165.3,3.2917,10000.6,60.0,0.0,0.0,3.2740,0.0,
69,,60.0,165.3,3.2890,10001.1,60.0,0.0,0.0,3.2712,0.0,
70,,60.0,165.3,3.2946,10001.0,60.0,0.0,0.0,3.2768,0.0,
71,,60.0,165.3,3.2941,10000.5,60.0,0.0,0.0,3.2762,0.0,
파일명:, C:\Program Files (x86)\PNE CTS\Data\00_     1     2_190507154101.fmt\n모델명:,(null)\n공정_조건명:,Formation\nTray_No:,      1     2\nLot_No:, 12\n모듈No:, 모듈 1-1\n시작_시각:, 2019-05-07 오후 3:41:01\n운영자:, Unuse\n\nCh,CellSerial,1:Char_Vtg,1:Char_Crt,1:Char_Cap,1:Char_Time,
1,,3.1236,0.0,0.0,0.0,
2,,3.2927,10001.1,165.3,60.0,
3,,3.2280,10000.0,165.3,60.0,
4,,3.3045,9999.4,165.3,60.0,
5,,3.3231,9999.5,165.3,60.0,
6,,3.2814,10000.5,165.3,60.0,
7,,3.3225,10000.9,165.3,60.0,
8,,3.3039,9999.5,165.3,60.0,
9,,3.3001,10000.8,165.3,60.0,
10,,3.3055,10001.7,165.3,60.0,
11,,3.3058,10001.2,165.3,60.0,
12,,3.3032,10000.7,165.3,60.0,
13,,3.2987,10000.4,165.3,60.0,
14,,3.3002,9999.9,165.3,60.0,
15,,3.2988,9999.5,165.3,60.0,
16,,3.3028,9999.4,165.3,60.0,
17,,3.2945,10001.5,165.3,60.0,
18,,3.2809,10001.1,165.3,60.0,
19,,3.3069,9999.4,165.3,60.0,
20,,3.2979,10000.6,165.3,60.0,
21,,3.3042,10000.3,165.3,60.0,
22,,3.3048,9999.6,165.3,60.0,
23,,3.3091,9999.5,165.3,60.0,
24,,3.3061,9999.9,165.3,60.0,
25,,3.3071,9999.5,165.3,60.0,
26,,3.2972,9999.2,165.3,60.0,
27,,3.2967,9999.4,165.3,60.0,
28,,3.2983,9999.5,165.3,60.0,
29,,3.3007,10001.2,165.3,60.0,
30,,3.2805,10001.0,165.3,60.0,
31,,3.3042,10001.5,165.3,60.0,
32,,3.2832,10000.0,165.3,60.0,
33,,3.2976,9999.0,165.3,60.0,
34,,3.2966,9999.1,165.3,60.0,
35,,3.2942,9999.1,165.3,60.0,
36,,3.3026,9999.2,165.3,60.0,
37,,3.2574,10001.0,165.3,60.0,
38,,3.3038,10001.1,165.3,60.0,
39,,3.2678,10000.8,165.3,60.0,
40,,3.2849,10001.0,165.3,60.0,
41,,3.2656,10000.3,165.3,60.0,
42,,3.3011,10000.8,165.3,60.0,
43,,3.2861,10000.6,165.3,60.0,
44,,3.3076,10000.1,165.4,60.0,
45,,3.2987,10000.5,165.3,60.0,
46,,3.2760,10000.4,165.3,60.0,
47,,3.2981,9999.6,165.3,60.0,
48,,3.3065,10000.0,165.3,60.0,
49,,3.2853,10000.0,165.3,60.0,
50,,3.2981,10000.8,165.3,60.0,
51,,3.2666,10001.2,165.3,60.0,
52,,3.2722,9999.9,165.3,60.0,
53,,3.3033,9999.2,165.3,60.0,
54,,3.2776,9999.7,165.3,60.0,
55,,3.3006,9999.0,165.3,60.0,
56,,3.2827,9999.7,165.3,60.0,
57,,3.2867,10000.0,165.3,60.0,
58,,3.2856,10000.1,165.3,60.0,
59,,3.2943,9999.5,165.3,60.0,
60,,3.2772,9999.9,165.3,60.0,
61,,3.2722,9999.1,165.3,60.0,
62,,3.2753,9999.5,165.3,60.0,
63,,3.2758,9999.5,165.3,60.0,
64,,3.2651,9999.3,165.3,60.0,
65,,3.3047,10000.4,165.3,60.0,
66,,3.2920,10000.5,165.3,60.0,
67,,3.2777,10000.8,165.3,60.0,
68,,3.2904,10000.0,165.3,60.0,
69,,3.2917,10000.6,165.3,60.0,
70,,3.2890,10001.1,165.3,60.0,
71,,3.2946,10001.0,165.3,60.0,
72,,3.2941,10000.5,165.3,60.0,
